{
  "$schema": "http://json-schema.org/draft-07/schema#",
  "$id": "Response.json",
  "title": "Response",
  "type": "object",
  "properties": {
    "feature": {
      "type": "object",
      "$ref": "Feature.json"
    },
    "featureSubType": {
      "type": "string"
    },
    "featurePoints": {
      "type": "array",
      "description": "List of points affected by the feature",
      "uniqueItems": false,
      "items": {
        "type": "object",
        "$ref": "Point.json"
      }
    }
  }
}